 $CONTRL SCFTYP=RHF EXETYP=DEBUG UNITS=BOHR COORD=UNIQUE ISPHER=-1 $END
 $SYSTEM TIMLIM=1 MWORDS=50 $END
 $BASIS BASNAM(1)=pc1 $END
 $ELDENS IEDEN=1 WHERE=POINTS $END
 $GUESS GUESS=HUCKEL $END
 $DATA
 Be...RHF/pcseg-2
 C1
 Berylium1  4.0     0.0  0.0  -0.0
 $END

 $pc1
    S   1
    1         0.300000E+01           1.00000000E+00
    S   1
    1         0.100000E+01           1.00000000E+00
    P   1
    1         0.300000E+00           1.00000000E+00
    D   1
    1         0.300000E+00           1.00000000E+00

 $END
 $POINTS
 BOHR 1
 -0.2108410492742380E+00 -0.1648285331962430E+01 -0.2482560392107512E+01
$END

